{
    "repo": {
        "version": 221006,
        "latest_version": "2.4.1",
        "min_compat": "2.1.0",
        "mirrors": [
            "https://codeberg.org/tblock/repo/raw/pages/stable/index.xml",
            "https://framagit.org/twann/repo/-/raw/pages/index.xml",
            "https://git.envs.net/twann/repo/raw/branch/pages/index.xml",
            "https://git.disroot.org/tblock/repo/raw/branch/pages/index.xml"
        ],
        "tags": ["ads", "annoyances", "circumvention", "countryspecific", "deadsites", "fakenews", "gambling", "illegal", "malware", "piracy", "porn", "services", "social", "spam", "tracking", "unblock"],
        "warnings": {
            "0": "no issue detected",
            "1": "may break some web pages",
            "2": "may break some apps and web pages",
            "3": "may slow boot or internet connection",
            "4": "not recommended for daily use"
        }
    },
    "filters": {
        "1hosts-lite": {
            "title": "1Hosts (Lite)",
            "desc": "Protect your 'data' & eyeballs from being auctioned to the highest bidder.",
            "homepage": "https://github.com/badmojr/1Hosts/",
            "license": ["custom", "https://raw.githubusercontent.com/DandelionSprout/Dandelicence/master/DandelicenceNewestVersion.md"],
            "syntax": "list",
            "source": "https://o0.pages.dev/Lite/domains.txt",
            "mirrors": [
                ["https://badmojr.gitlab.io/1hosts/Lite/domains.txt", null],
                ["https://badmojr.github.io/1Hosts/Lite/domains.txt", null],
                ["https://gitlab.com/badmojr/1hosts/-/raw/main/Lite/domains.txt", null],
                ["https://raw.githubusercontent.com/badmojr/1Hosts/master/Lite/domains.txt", null],
                ["https://codeberg.org/tblock/mirror/media/branch/2.0.0/lists/1hosts-lite.xz", "xz"],
                ["https://framagit.org/twann/mirror/-/raw/2.0.0/lists/1hosts-lite.xz", "xz"]
            ],
            "tags": ["ads", "tracking"],
            "warning": "0"
        },
        "1hosts-mini": {
            "title": "1Hosts (mini)",
            "desc": "Protect your 'data' & eyeballs from being auctioned to the highest bidder.",
            "homepage": "https://github.com/badmojr/1Hosts/",
            "license": ["custom", "https://raw.githubusercontent.com/DandelionSprout/Dandelicence/master/DandelicenceNewestVersion.md"],
            "syntax": "list",
            "source": "https://o0.pages.dev/mini/domains.txt",
            "mirrors": [
                ["https://badmojr.gitlab.io/1hosts/mini/domains.txt", null],
                ["https://badmojr.github.io/1Hosts/mini/domains.txt", null],
                ["https://gitlab.com/badmojr/1hosts/-/raw/main/mini/domains.txt", null],
                ["https://raw.githubusercontent.com/badmojr/1Hosts/master/mini/domains.txt", null],
                ["https://codeberg.org/tblock/mirror/media/branch/2.0.0/lists/1hosts-mini.xz", "xz"],
                ["https://framagit.org/twann/mirror/-/raw/2.0.0/lists/1hosts-mini.xz", "xz"]
            ],
            "tags": ["ads", "tracking"],
            "warning": "0"
        },
        "1hosts-pro": {
            "title": "1Hosts (Pro)",
            "desc": "Protect your 'data' & eyeballs from being auctioned to the highest bidder.",
            "homepage": "https://github.com/badmojr/1Hosts/",
            "license": ["custom", "https://raw.githubusercontent.com/DandelionSprout/Dandelicence/master/DandelicenceNewestVersion.md"],
            "syntax": "list",
            "source": "https://o0.pages.dev/Pro/domains.txt",
            "mirrors": [
                ["https://badmojr.gitlab.io/1hosts/Pro/domains.txt", null],
                ["https://badmojr.github.io/1Hosts/Pro/domains.txt", null],
                ["https://gitlab.com/badmojr/1hosts/-/raw/main/Pro/domains.txt", null],
                ["https://raw.githubusercontent.com/badmojr/1Hosts/master/Pro/domains.txt", null],
                ["https://codeberg.org/tblock/mirror/media/branch/2.0.0/lists/1hosts-pro.xz", "xz"],
                ["https://framagit.org/twann/mirror/-/raw/2.0.0/lists/1hosts-pro.xz", "xz"]
            ],
            "tags": ["ads", "malware", "tracking"],
            "warning": "1"
        },
        "1hosts-xtra": {
            "title": "1Hosts (Xtra)",
            "desc": "Protect your 'data' & eyeballs from being auctioned to the highest bidder.",
            "homepage": "https://github.com/badmojr/1Hosts/",
            "license": ["custom", "https://raw.githubusercontent.com/DandelionSprout/Dandelicence/master/DandelicenceNewestVersion.md"],
            "syntax": "list",
            "source": "https://o0.pages.dev/Xtra/domains.txt",
            "mirrors": [
                ["https://badmojr.gitlab.io/1hosts/Xtra/domains.txt", null],
                ["https://badmojr.github.io/1Hosts/Xtra/domains.txt", null],
                ["https://gitlab.com/badmojr/1hosts/-/raw/main/Xtra/domains.txt", null],
                ["https://raw.githubusercontent.com/badmojr/1Hosts/master/Xtra/domains.txt", null],
                ["https://codeberg.org/tblock/mirror/media/branch/2.0.0/lists/1hosts-xtra.xz", "xz"],
                ["https://framagit.org/twann/mirror/-/raw/2.0.0/lists/1hosts-xtra.xz", "xz"]
            ],
            "tags": ["ads", "malware", "tracking"],
            "warning": "3"
        },
        "abpvn": {
            "title": "ABPVN List",
            "desc": "Adblock filter list for Vietnamese",
            "homepage": "https://abpvn.com",
            "license": ["GPL-3.0", "https://raw.githubusercontent.com/abpvn/abpvn/master/LICENSE"],
            "syntax": "hosts",
            "source": "https://abpvn.com/android/abpvn.txt",
            "mirrors": [
                ["https://codeberg.org/tblock/mirror/media/branch/2.0.0/lists/abpvn.xz", "xz"],
                ["https://framagit.org/twann/mirror/-/raw/2.0.0/lists/abpvn.xz", "xz"]
            ],
            "tags": ["ads", "countryspecific"],
            "warning": "0"
        },
        "ad-domains-filter-list": {
            "title": "Ad Domains Filter List",
            "desc": "A combined list of all the Ad Domains.",
            "homepage": "https://laniksj.github.io/ubo-filters",
            "license": ["MIT", "https://raw.githubusercontent.com/LanikSJ/ubo-filters/main/LICENSE"],
            "syntax": "adblockplus",
            "source": "https://raw.githubusercontent.com/LanikSJ/ubo-filters/main/filters/combined-filters.txt",
            "mirrors": [
                ["https://codeberg.org/tblock/mirror/media/branch/2.0.0/lists/ad-domains-filter-list.xz", "xz"],
                ["https://framagit.org/twann/mirror/-/raw/2.0.0/lists/ad-domains-filter-list.xz", "xz"]
            ],
            "tags": ["ads"],
            "warning": "0"
        },
        "adaway": {
            "title": "AdAway default blocklist",
            "desc": "Blocking mobile ad providers and some analytics providers",
            "homepage": "https://github.com/AdAway/adaway.github.io/",
            "license": ["CC-BY-3.0", "https://creativecommons.org/licenses/by/3.0/legalcode.txt"],
            "syntax": "hosts",
            "source": "https://adaway.org/hosts.txt",
            "mirrors": [
                ["https://raw.githubusercontent.com/AdAway/adaway.github.io/master/hosts.txt", null],
                ["https://codeberg.org/tblock/mirror/media/branch/2.0.0/lists/adaway.xz", "xz"],
                ["https://framagit.org/twann/mirror/-/raw/2.0.0/lists/adaway.xz", "xz"]
            ],
            "tags": ["ads", "tracking"],
            "warning": "0"
        },
        "add.2o7net": {
            "title": "add.2o7Net",
            "desc": "2o7Net tracking sites based on http://www.hostsfile.org/hosts.html content.",
            "homepage": "https://github.com/FadeMind/hosts.extras",
            "license": ["GPL-3.0", "https://www.gnu.org/licenses/gpl-3.0.txt"],
            "syntax": "hosts",
            "source": "https://raw.githubusercontent.com/FadeMind/hosts.extras/master/add.2o7Net/hosts",
            "mirrors": [
                ["https://codeberg.org/tblock/mirror/media/branch/2.0.0/lists/add.2o7net.xz", "xz"],
                ["https://framagit.org/twann/mirror/-/raw/2.0.0/lists/add.2o7net.xz", "xz"]
            ],
            "tags": ["ads", "tracking"],
            "warning": "0"
        },
        "add.dead": {
            "title": "add.Dead",
            "desc": "Dead sites based on http://www.hostsfile.org/hosts.html content.",
            "homepage": "https://github.com/FadeMind/hosts.extras",
            "license": ["GPL-3.0", "https://www.gnu.org/licenses/gpl-3.0.txt"],
            "syntax": "hosts",
            "source": "https://raw.githubusercontent.com/FadeMind/hosts.extras/master/add.Dead/hosts",
            "mirrors": [
                ["https://codeberg.org/tblock/mirror/media/branch/2.0.0/lists/add.dead.xz", "xz"],
                ["https://framagit.org/twann/mirror/-/raw/2.0.0/lists/add.dead.xz", "xz"]
            ],
            "tags": ["deadsites"],
            "warning": "0"
        },
        "add.risk": {
            "title": "add.Risk",
            "desc": "Risk content sites based on http://www.hostsfile.org/hosts.html content.",
            "homepage": "https://github.com/FadeMind/hosts.extras",
            "license": ["GPL-3.0", "https://www.gnu.org/licenses/gpl-3.0.txt"],
            "syntax": "hosts",
            "source": "https://raw.githubusercontent.com/FadeMind/hosts.extras/master/add.Risk/hosts",
            "mirrors": [
                ["https://codeberg.org/tblock/mirror/media/branch/2.0.0/lists/add.risk.xz", "xz"],
                ["https://framagit.org/twann/mirror/-/raw/2.0.0/lists/add.risk.xz", "xz"]
            ],
            "tags": ["malware"],
            "warning": "0"
        },
        "add.spam": {
            "title": "add.Spam",
            "desc": "Spam sites based on http://www.hostsfile.org/hosts.html content.",
            "homepage": "https://github.com/FadeMind/hosts.extras",
            "license": ["GPL-3.0", "https://www.gnu.org/licenses/gpl-3.0.txt"],
            "syntax": "hosts",
            "source": "https://raw.githubusercontent.com/FadeMind/hosts.extras/master/add.Spam/hosts",
            "mirrors": [
                ["https://codeberg.org/tblock/mirror/media/branch/2.0.0/lists/add.spam.xz", "xz"],
                ["https://framagit.org/twann/mirror/-/raw/2.0.0/lists/add.spam.xz", "xz"]
            ],
            "tags": ["malware", "spam"],
            "warning": "0"
        },
        "adguard-cname": {
            "title": "AdGuard CNAME disguised trackers list",
            "desc": "The list of trackers that disguise the real trackers by using CNAME records.",
            "homepage": "https://github.com/AdguardTeam/cname-trackers",
            "license": ["MIT", "https://raw.githubusercontent.com/AdguardTeam/cname-trackers/master/LICENSE"],
            "syntax": "list",
            "source": "https://raw.githubusercontent.com/AdguardTeam/cname-trackers/master/combined_disguised_trackers_justdomains.txt",
            "mirrors": [
                ["https://codeberg.org/tblock/mirror/media/branch/2.0.0/lists/adguard-cname.xz", "xz"],
                ["https://framagit.org/twann/mirror/-/raw/2.0.0/lists/adguard-cname.xz", "xz"]
            ],
            "tags": ["tracking"],
            "warning": "0"
        },
        "adguard-dns": {
            "title": "AdGuard DNS filter",
            "desc": "Filter composed of several other filters (AdGuard Base filter, Social Media filter, Tracking Protection filter, Mobile Ads filter, EasyList and EasyPrivacy) and simplified specifically to be better compatible with DNS-level ad blocking",
            "homepage": "https://github.com/AdguardTeam/AdguardSDNSFilter",
            "license": ["GPL-3.0", "https://raw.githubusercontent.com/AdguardTeam/AdGuardSDNSFilter/master/LICENSE"],
            "syntax": "adblockplus",
            "source": "https://filters.adtidy.org/windows/filters/15.txt",
            "mirrors": [
                ["https://codeberg.org/tblock/mirror/media/branch/2.0.0/lists/adguard-dns.xz", "xz"],
                ["https://framagit.org/twann/mirror/-/raw/2.0.0/lists/adguard-dns.xz", "xz"]
            ],
            "tags": ["ads", "tracking"],
            "warning": "0"
        },
        "adguard-tracking-servers": {
            "title": "AdGuard Tracking Servers",
            "desc": "List of tracking servers, which are hosted on useful sites as subdomains",
            "homepage": "https://github.com/AdguardTeam/AdguardSDNSFilter",
            "license": ["GPL-3.0", "https://raw.githubusercontent.com/AdguardTeam/AdGuardSDNSFilter/master/LICENSE"],
            "syntax": "adblockplus",
            "source": "https://raw.githubusercontent.com/AdguardTeam/AdguardFilters/master/SpywareFilter/sections/tracking_servers_firstparty.txt",
            "mirrors": [
                ["https://codeberg.org/tblock/mirror/media/branch/2.0.0/lists/adguard-tracking-servers.xz", "xz"],
                ["https://framagit.org/twann/mirror/-/raw/2.0.0/lists/adguard-tracking-servers.xz", "xz"]
            ],
            "tags": ["tracking"],
            "warning": "0"
        },
        "barbblock": {
            "title": "BarbBlock",
            "desc": "BarbBlock is a content blocking list with standalone browser extensions for Chrome and Firefox. It blacklists sites which have used DMCA takedowns to force removal from other content blocking lists.",
            "homepage": "https://paulgb.github.io/BarbBlock/",
            "license": ["MIT", "https://raw.githubusercontent.com/paulgb/BarbBlock/master/LICENSE"],
            "syntax": "hosts",
            "source": "https://paulgb.github.io/BarbBlock/blacklists/hosts-file.txt",
            "mirrors": [
                ["https://raw.githubusercontent.com/paulgb/BarbBlock/master/blacklists/hosts-file.txt", null],
                ["https://codeberg.org/tblock/mirror/media/branch/2.0.0/lists/barbblock.xz", "xz"],
                ["https://framagit.org/twann/mirror/-/raw/2.0.0/lists/barbblock.xz", "xz"]
            ],
            "tags": ["ads", "circumvention", "tracking"],
            "warning": "0"
        },
        "badd-boyz-hosts": {
            "title": "Badd Boyz Hosts",
            "desc": "A hosts file for use on any operating system to block bad domains out of your servers or devices.",
            "homepage": "https://github.com/mitchellkrogza/Badd-Boyz-Hosts",
            "license": ["MIT", "https://raw.githubusercontent.com/mitchellkrogza/Badd-Boyz-Hosts/master/LICENSE.md"],
            "syntax": "list",
            "source": "https://raw.githubusercontent.com/mitchellkrogza/Badd-Boyz-Hosts/master/domains",
            "mirrors": [
                ["https://codeberg.org/tblock/mirror/media/branch/2.0.0/lists/badd-boyz-hosts.xz", "xz"],
                ["https://framagit.org/twann/mirror/-/raw/2.0.0/lists/badd-boyz-hosts.xz", "xz"]
            ],
            "tags": ["malware", "spam"],
            "warning": "0"
        },
        "blackbook": {
            "title": "blackbook",
            "desc": "List of newly reported entries from public lists of malicious URLs",
            "homepage": "https://github.com/stamparm/blackbook",
            "license": ["CC0-1.0", "https://creativecommons.org/publicdomain/zero/1.0/legalcode.txt"],
            "syntax": "list",
            "source": "https://raw.githubusercontent.com/stamparm/blackbook/master/blackbook.txt",
            "mirrors": [
                ["https://codeberg.org/tblock/mirror/media/branch/2.0.0/lists/blackbook.xz", "xz"],
                ["https://framagit.org/twann/mirror/-/raw/2.0.0/lists/blackbook.xz", "xz"]
            ],
            "tags": ["malware"],
            "warning": "0"
        },
        "blocklistproject-abuse": {
            "title": "The Block List Project - Abuse List",
            "desc": "Lists of sites created to deceive",
            "homepage": "https://blocklist.site",
            "license": ["Unlicense", "https://raw.githubusercontent.com/blocklistproject/Lists/master/LICENSE"],
            "syntax": "list",
            "source": "https://blocklistproject.github.io/Lists/alt-version/abuse-nl.txt",
            "mirrors": [
                ["https://codeberg.org/tblock/mirror/media/branch/2.0.0/lists/blocklistproject-abuse.xz", "xz"],
                ["https://framagit.org/twann/mirror/-/raw/2.0.0/lists/blocklistproject-abuse.xz", "xz"]
            ],
            "tags": ["spam"],
            "warning": "0"
        },
        "blocklistproject-ads": {
            "title": "The Block List Project - Ads List",
            "desc": "Ad servers / sites",
            "homepage": "https://blocklist.site",
            "license": ["Unlicense", "https://raw.githubusercontent.com/blocklistproject/Lists/master/LICENSE"],
            "syntax": "list",
            "source": "https://blocklistproject.github.io/Lists/alt-version/ads-nl.txt",
            "mirrors": [
                ["https://codeberg.org/tblock/mirror/media/branch/2.0.0/lists/blocklistproject-ads.xz", "xz"],
                ["https://framagit.org/twann/mirror/-/raw/2.0.0/lists/blocklistproject-ads.xz", "xz"]
            ],
            "tags": ["ads"],
            "warning": "0"
        },
        "blocklistproject-crypto": {
            "title": "The Block List Project - Crypto List",
            "desc": "Crypto / cryptojacking based sites",
            "homepage": "https://blocklist.site",
            "license": ["Unlicense", "https://raw.githubusercontent.com/blocklistproject/Lists/master/LICENSE"],
            "syntax": "list",
            "source": "https://blocklistproject.github.io/Lists/alt-version/crypto-nl.txt",
            "mirrors": [
                ["https://codeberg.org/tblock/mirror/media/branch/2.0.0/lists/blocklistproject-crypto.xz", "xz"],
                ["https://framagit.org/twann/mirror/-/raw/2.0.0/lists/blocklistproject-crypto.xz", "xz"]
            ],
            "tags": ["malware", "spam"],
            "warning": "2"
        },
        "blocklistproject-drugs": {
            "title": "The Block List Project - Drugs List",
            "desc": "RE sites that deal with illegal drugs",
            "homepage": "https://blocklist.site",
            "license": ["Unlicense", "https://raw.githubusercontent.com/blocklistproject/Lists/master/LICENSE"],
            "syntax": "list",
            "source": "https://blocklistproject.github.io/Lists/alt-version/drugs-nl.txt",
            "mirrors": [
                ["https://codeberg.org/tblock/mirror/media/branch/2.0.0/lists/blocklistproject-drugs.xz", "xz"],
                ["https://framagit.org/twann/mirror/-/raw/2.0.0/lists/blocklistproject-drugs.xz", "xz"]
            ],
            "tags": ["illegal"],
            "warning": "1"
        },
        "blocklistproject-everything": {
            "title": "The Block List Project - Everything List",
            "desc": "List including all non beta list domains",
            "homepage": "https://blocklist.site",
            "license": ["Unlicense", "https://raw.githubusercontent.com/blocklistproject/Lists/master/LICENSE"],
            "syntax": "list",
            "source": "https://blocklistproject.github.io/Lists/alt-version/everything-nl.txt",
            "mirrors": [
                ["https://codeberg.org/tblock/mirror/media/branch/2.0.0/lists/blocklistproject-everything.xz", "xz"],
                ["https://framagit.org/twann/mirror/-/raw/2.0.0/lists/blocklistproject-everything.xz", "xz"]
            ],
            "tags": ["ads", "gambling", "illegal", "malware", "piracy", "porn", "services", "spam", "tracking"],
            "warning": "3"
        },
        "blocklistproject-facebook": {
            "title": "The Block List Project - Facebook List",
            "desc": "Block FB and FB related / owned services",
            "homepage": "https://blocklist.site",
            "license": ["Unlicense", "https://raw.githubusercontent.com/blocklistproject/Lists/master/LICENSE"],
            "syntax": "list",
            "source": "https://blocklistproject.github.io/Lists/alt-version/facebook-nl.txt",
            "mirrors": [
                ["https://codeberg.org/tblock/mirror/media/branch/2.0.0/lists/blocklistproject-facebook.xz", "xz"],
                ["https://framagit.org/twann/mirror/-/raw/2.0.0/lists/blocklistproject-facebook.xz", "xz"]
            ],
            "tags": ["services"],
            "warning": "2"
        },
        "blocklistproject-fraud": {
            "title": "The Block List Project - Fraud List",
            "desc": "Sites create to fraud",
            "homepage": "https://blocklist.site",
            "license": ["Unlicense", "https://raw.githubusercontent.com/blocklistproject/Lists/master/LICENSE"],
            "syntax": "list",
            "source": "https://blocklistproject.github.io/Lists/alt-version/fraud-nl.txt",
            "mirrors": [
                ["https://codeberg.org/tblock/mirror/media/branch/2.0.0/lists/blocklistproject-fraud.xz", "xz"],
                ["https://framagit.org/twann/mirror/-/raw/2.0.0/lists/blocklistproject-fraud.xz", "xz"]
            ],
            "tags": ["illegal", "spam"],
            "warning": "0"
        },
        "blocklistproject-gambling": {
            "title": "The Block List Project - Gambling List",
            "desc": "All gambling based site legit and illegal",
            "homepage": "https://blocklist.site",
            "license": ["Unlicense", "https://raw.githubusercontent.com/blocklistproject/Lists/master/LICENSE"],
            "syntax": "list",
            "source": "https://blocklistproject.github.io/Lists/alt-version/gambling-nl.txt",
            "mirrors": [
                ["https://codeberg.org/tblock/mirror/media/branch/2.0.0/lists/blocklistproject-gambling.xz", "xz"],
                ["https://framagit.org/twann/mirror/-/raw/2.0.0/lists/blocklistproject-gambling.xz", "xz"]
            ],
            "tags": ["gambling", "illegal"],
            "warning": "1"
        },
        "blocklistproject-malware": {
            "title": "The Block List Project - Malware List",
            "desc": "Known sites that host malware",
            "homepage": "https://blocklist.site",
            "license": ["Unlicense", "https://raw.githubusercontent.com/blocklistproject/Lists/master/LICENSE"],
            "syntax": "list",
            "source": "https://blocklistproject.github.io/Lists/alt-version/malware-nl.txt",
            "mirrors": [
                ["https://codeberg.org/tblock/mirror/media/branch/2.0.0/lists/blocklistproject-gambling.xz", "xz"],
                ["https://framagit.org/twann/mirror/-/raw/2.0.0/lists/blocklistproject-gambling.xz", "xz"]
            ],
            "tags": ["malware"],
            "warning": "1"
        },
        "blocklistproject-phishing": {
            "title": "The Block List Project - Phishing List",
            "desc": "Sites created to phish info",
            "homepage": "https://blocklist.site",
            "license": ["Unlicense", "https://raw.githubusercontent.com/blocklistproject/Lists/master/LICENSE"],
            "syntax": "list",
            "source": "https://blocklistproject.github.io/Lists/alt-version/phishing-nl.txt",
            "mirrors": [
                ["https://codeberg.org/tblock/mirror/media/branch/2.0.0/lists/blocklistproject-phishing.xz", "xz"],
                ["https://framagit.org/twann/mirror/-/raw/2.0.0/lists/blocklistproject-phishing.xz", "xz"]
            ],
            "tags": ["malware", "spam"],
            "warning": "0"
        },
        "blocklistproject-piracy": {
            "title": "The Block List Piracy - Piracy List",
            "desc": "Knows sites that allow for illegal downloads",
            "homepage": "https://blocklist.site",
            "license": ["Unlicense", "https://raw.githubusercontent.com/blocklistproject/Lists/master/LICENSE"],
            "syntax": "list",
            "source": "https://blocklistproject.github.io/Lists/alt-version/piracy-nl.txt",
            "mirrors": [
                ["https://codeberg.org/tblock/mirror/media/branch/2.0.0/lists/blocklistproject-piracy.xz", "xz"],
                ["https://framagit.org/twann/mirror/-/raw/2.0.0/lists/blocklistproject-piracy.xz", "xz"]
            ],
            "tags": ["illegal", "piracy"],
            "warning": "0"
        },
        "blocklistproject-porn": {
            "title": "The Block List Piracy - Porn List",
            "desc": "Porn or sites that promote porn",
            "homepage": "https://blocklist.site",
            "license": ["Unlicense", "https://raw.githubusercontent.com/blocklistproject/Lists/master/LICENSE"],
            "syntax": "list",
            "source": "https://blocklistproject.github.io/Lists/alt-version/porn-nl.txt",
            "mirrors": [
                ["https://codeberg.org/tblock/mirror/media/branch/2.0.0/lists/blocklistproject-porn.xz", "xz"],
                ["https://framagit.org/twann/mirror/-/raw/2.0.0/lists/blocklistproject-porn.xz", "xz"]
            ],
            "tags": ["porn"],
            "warning": "3"
        },
        "blocklistproject-ramsomware": {
            "title": "The Block List Piracy - Ransomware List",
            "desc": "Known sites that host or contain ransomware",
            "homepage": "https://blocklist.site",
            "license": ["Unlicense", "https://raw.githubusercontent.com/blocklistproject/Lists/master/LICENSE"],
            "syntax": "list",
            "source": "https://blocklistproject.github.io/Lists/alt-version/ransomware-nl.txt",
            "mirrors": [
                ["https://codeberg.org/tblock/mirror/media/branch/2.0.0/lists/blocklistproject-ransomware.xz", "xz"],
                ["https://framagit.org/twann/mirror/-/raw/2.0.0/lists/blocklistproject-ransomware.xz", "xz"]
            ],
            "tags": ["malware"],
            "warning": "0"
        },
        "blocklistproject-redirect": {
            "title": "The Block List Piracy - Redirect List",
            "desc": "Sites that redirect your from your intended site",
            "homepage": "https://blocklist.site",
            "license": ["Unlicense", "https://raw.githubusercontent.com/blocklistproject/Lists/master/LICENSE"],
            "syntax": "list",
            "source": "https://blocklistproject.github.io/Lists/alt-version/redirect-nl.txt",
            "mirrors": [
                ["https://codeberg.org/tblock/mirror/media/branch/2.0.0/lists/blocklistproject-redirect.xz", "xz"],
                ["https://framagit.org/twann/mirror/-/raw/2.0.0/lists/blocklistproject-redirect.xz", "xz"]
            ],
            "tags": ["spam"],
            "warning": "0"
        },
        "blocklistproject-scam": {
            "title": "The Block List Piracy - Scam List",
            "desc": "Sites that intend to scam",
            "homepage": "https://blocklist.site",
            "license": ["Unlicense", "https://raw.githubusercontent.com/blocklistproject/Lists/master/LICENSE"],
            "syntax": "list",
            "source": "https://blocklistproject.github.io/Lists/alt-version/scam-nl.txt",
            "mirrors": [
                ["https://codeberg.org/tblock/mirror/media/branch/2.0.0/lists/blocklistproject-scam.xz", "xz"],
                ["https://framagit.org/twann/mirror/-/raw/2.0.0/lists/blocklistproject-scam.xz", "xz"]
            ],
            "tags": ["spam"],
            "warning": "0"
        },
        "blocklistproject-tiktok": {
            "title": "The Block List Piracy - TikTok List",
            "desc": "Copy and pasted into your device",
            "homepage": "https://blocklist.site",
            "license": ["Unlicense", "https://raw.githubusercontent.com/blocklistproject/Lists/master/LICENSE"],
            "syntax": "list",
            "source": "https://blocklistproject.github.io/Lists/alt-version/tiktok-nl.txt",
            "mirrors": [
                ["https://codeberg.org/tblock/mirror/media/branch/2.0.0/lists/blocklistproject-tiktok.xz", "xz"],
                ["https://framagit.org/twann/mirror/-/raw/2.0.0/lists/blocklistproject-tiktok.xz", "xz"]
            ],
            "tags": ["services"],
            "warning": "2"
        },
        "blocklistproject-torrent": {
            "title": "The Block List Piracy - Torrent List",
            "desc": "Torrent directory",
            "homepage": "https://blocklist.site",
            "license": ["Unlicense", "https://raw.githubusercontent.com/blocklistproject/Lists/master/LICENSE"],
            "syntax": "list",
            "source": "https://blocklistproject.github.io/Lists/alt-version/torrent-nl.txt",
            "mirrors": [
                ["https://codeberg.org/tblock/mirror/media/branch/2.0.0/lists/blocklistproject-torrent.xz", "xz"],
                ["https://framagit.org/twann/mirror/-/raw/2.0.0/lists/blocklistproject-torrent.xz", "xz"]
            ],
            "tags": ["illegal", "piracy"],
            "warning": "2"
        },
        "blocklistproject-tracking": {
            "title": "The Block List Piracy - Tracking List",
            "desc": "Sites dedicated to tracking and gathering visitor info",
            "homepage": "https://blocklist.site",
            "license": ["Unlicense", "https://raw.githubusercontent.com/blocklistproject/Lists/master/LICENSE"],
            "syntax": "list",
            "source": "https://blocklistproject.github.io/Lists/alt-version/tracking-nl.txt",
            "mirrors": [
                ["https://codeberg.org/tblock/mirror/media/branch/2.0.0/lists/blocklistproject-tracking.xz", "xz"],
                ["https://framagit.org/twann/mirror/-/raw/2.0.0/lists/blocklistproject-tracking.xz", "xz"]
            ],
            "tags": ["tracking"],
            "warning": "0"
        },
        "cpbl-filters": {
            "title": "CPBL Filters for ABP & uBO",
            "desc": "Combined Privacy BlockLists Filters for ABP & uBO",
            "homepage": "https://github.com/bongochong/CombinedPrivacyBlockLists",
            "license": ["CPAL-1.0", "https://github.com/bongochong/CombinedPrivacyBlockLists/raw/master/LICENSE"],
            "syntax": "adblockplus",
            "source": "https://raw.githubusercontent.com/bongochong/CombinedPrivacyBlockLists/master/cpbl-abp-list.txt",
            "mirrors": [
                ["https://codeberg.org/tblock/mirror/media/branch/2.0.0/lists/cpbl-filters.xz", "xz"],
                ["https://framagit.org/twann/mirror/-/raw/2.0.0/lists/cpbl-filters.xz", "xz"]
            ],
            "tags": ["tracking"],
            "warning": "0"
        },
        "ddgtrackerradar": {
            "title": "DuckDuckGo Tracker Radar",
            "desc": "This host file is based on DuckDuckGo Tracker Radar.",
            "homepage": "https://go.blokada.org/ddgtrackerradar",
            "license": ["CC-BY-NC-SA-4.0", "https://raw.githubusercontent.com/duckduckgo/tracker-radar/main/LICENSE"],
            "syntax": "list",
            "source": "https://blokada.org/blocklists/ddgtrackerradar/standard/hosts.txt",
            "mirrors": [
                ["https://codeberg.org/tblock/mirror/media/branch/2.0.0/lists/ddgtrackerradar.xz", "xz"],
                ["https://framagit.org/twann/mirror/-/raw/2.0.0/lists/ddgtrackerradar.xz", "xz"]
            ],
            "tags": ["tracking"],
            "warning": "0"
        },
        "decloudflare": {
            "title": "deCloudflare blocklist",
            "desc": "Block all hosts that are proxied through Cloudflare servers (~23 mio domains). List computed from http://crimeflare.eu.org/, updated every month.",
            "homepage": "http://crimeflare.eu.org/",
            "license": ["CC-BY-4.0", "https://creativecommons.org/licenses/by/4.0/legalcode.txt"],
            "syntax": "list",
            "source": "https://files.trom.tf/s/r7cEne7dQoCyYb4/download/cloudflare.txt",
            "mirrors": [],
            "tags": ["services"],
            "warning": "4"
        },
        "disconnect-ad": {
            "title": "Disconnect ad filter list",
            "desc": "Ad filter list by Disconnect",
            "homepage": "https://disconnect.me/",
            "license": ["GPL-3.0", "https://www.gnu.org/licenses/gpl-3.0.txt"],
            "syntax": "list",
            "source": "https://s3.amazonaws.com/lists.disconnect.me/simple_ad.txt",
            "mirrors": [
                ["https://codeberg.org/tblock/mirror/media/branch/2.0.0/lists/disconnect-ad.xz", "xz"],
                ["https://framagit.org/twann/mirror/-/raw/2.0.0/lists/disconnect-ad.xz", "xz"]
            ],
            "tags": ["ads"],
            "warning": "0"
        },
        "disconnect-malvertising": {
            "title": "Disconnect malvertising list",
            "desc": "Malvertising list by Disconnect",
            "homepage": "https://disconnect.me/",
            "license": ["GPL-3.0", "https://www.gnu.org/licenses/gpl-3.0.txt"],
            "syntax": "list",
            "source": "https://s3.amazonaws.com/lists.disconnect.me/simple_malvertising.txt",
            "mirrors": [
                ["https://codeberg.org/tblock/mirror/media/branch/2.0.0/lists/disconnect-malvertising.xz", "xz"],
                ["https://framagit.org/twann/mirror/-/raw/2.0.0/lists/disconnect-malvertising.xz", "xz"]
            ],
            "tags": ["ads", "malware", "spam"],
            "warning": "0"
        },
        "disconnect-malware": {
            "title": "Disconnect malware list",
            "desc": "Malware list by Disconnect",
            "homepage": "https://disconnect.me/",
            "license": ["GPL-3.0", "https://www.gnu.org/licenses/gpl-3.0.txt"],
            "syntax": "list",
            "source": "https://s3.amazonaws.com/lists.disconnect.me/simple_malware.txt",
            "mirrors": [
                ["https://codeberg.org/tblock/mirror/media/branch/2.0.0/lists/disconnect-malware.xz", "xz"],
                ["https://framagit.org/twann/mirror/-/raw/2.0.0/lists/disconnect-malware.xz", "xz"]
            ],
            "tags": ["malware"],
            "warning": "0"
        },
        "disconnect-tracking": {
            "title": "Disconnect basic tracking list",
            "desc": "Basic tracking list by Disconnect",
            "homepage": "https://disconnect.me/",
            "license": ["GPL-3.0", "https://www.gnu.org/licenses/gpl-3.0.txt"],
            "syntax": "list",
            "source": "https://s3.amazonaws.com/lists.disconnect.me/simple_tracking.txt",
            "mirrors": [
                ["https://codeberg.org/tblock/mirror/media/branch/2.0.0/lists/disconnect-tracking.xz", "xz"],
                ["https://framagit.org/twann/mirror/-/raw/2.0.0/lists/disconnect-tracking.xz", "xz"]
            ],
            "tags": ["tracking"],
            "warning": "0"
        },
        "divested": {
            "title": "Divested Hosts",
            "desc": "Ready to use lists combined from many permissively licensed sources.",
            "homepage": "https://divested.dev/index.php?page=dnsbl",
            "license": ["GPL-3.0", "https://www.gnu.org/licenses/gpl-3.0.txt"],
            "syntax": "list",
            "source": "https://divested.dev/hosts-domains",
            "mirrors": [
                ["https://codeberg.org/tblock/mirror/media/branch/2.0.0/lists/divested.xz", "xz"],
                ["https://framagit.org/twann/mirror/-/raw/2.0.0/lists/divested.xz", "xz"]
            ],
            "tags": ["ads", "deadsites", "malware", "spam", "tracking"],
            "warning": "3"
        },
        "easylist": {
            "title": "EasyList",
            "desc": "EasyList is the primary filter list that removes most adverts from international webpages, including unwanted frames, images and objects. It is the most popular list used by many ad blockers and forms the basis of over a dozen combination and supplementary filter lists.",
            "homepage": "https://easylist.to/",
            "license": ["GPL-3.0", "https://www.gnu.org/licenses/gpl-3.0.txt"],
            "syntax": "adblockplus",
            "source": "https://easylist.to/easylist/easylist.txt",
            "mirrors": [
                ["https://fanboy.co.nz/easylist.txt", null],
                ["https://easylist-downloads.adblockplus.org/easylist.txt", null],
                ["https://codeberg.org/tblock/mirror/media/branch/2.0.0/lists/easylist.xz", "xz"],
                ["https://framagit.org/twann/mirror/-/raw/2.0.0/lists/easylist.xz", "xz"]
            ],
            "tags": ["ads"],
            "warning": "0"
        },
        "easyprivacy": {
            "title": "EasyPrivacy",
            "desc": "EasyPrivacy is an optional supplementary filter list that completely removes all forms of tracking from the internet, including web bugs, tracking scripts and information collectors, thereby protecting your personal data.",
            "homepage": "https://easylist.to/",
            "license": ["GPL-3.0", "https://www.gnu.org/licenses/gpl-3.0.txt"],
            "syntax": "adblockplus",
            "source": "https://easylist.to/easylist/easyprivacy.txt",
            "mirrors": [
                ["https://fanboy.co.nz/easyprivacy.txt", null],
                ["https://easylist-downloads.adblockplus.org/easyprivacy.txt", null],
                ["https://codeberg.org/tblock/mirror/media/branch/2.0.0/lists/easyprivacy.xz", "xz"],
                ["https://framagit.org/twann/mirror/-/raw/2.0.0/lists/easyprivacy.xz", "xz"]
            ],
            "tags": ["tracking"],
            "warning": "0"
        },
        "energized-basic": {
            "title": "Energized Basic",
            "desc": "Balanced protection.",
            "homepage": "https://energized.pro/",
            "license": ["MIT", "https://raw.githubusercontent.com/EnergizedProtection/block/master/LICENSE"],
            "syntax": "hosts",
            "source": "https://block.energized.pro/basic/formats/hosts.txt",
            "mirrors": [
                ["https://codeberg.org/tblock/mirror/media/branch/2.0.0/lists/energized-basic.xz", "xz"],
                ["https://framagit.org/twann/mirror/-/raw/2.0.0/lists/energized-basic.xz", "xz"]
            ],
            "tags": ["ads", "tracking"],
            "warning": "3"
        },
        "energized-blu": {
            "title": "Energized Blu",
            "desc": "Mid range lightweight protection.",
            "homepage": "https://energized.pro/",
            "license": ["MIT", "https://raw.githubusercontent.com/EnergizedProtection/block/master/LICENSE"],
            "syntax": "hosts",
            "source": "https://block.energized.pro/blu/formats/hosts.txt",
            "mirrors": [
                ["https://codeberg.org/tblock/mirror/media/branch/2.0.0/lists/energized-blu.xz", "xz"],
                ["https://framagit.org/twann/mirror/-/raw/2.0.0/lists/energized-blu.xz", "xz"]
            ],
            "tags": ["ads", "tracking"],
            "warning": "1"
        },
        "energized-blugo": {
            "title": "Energized Blu Go",
            "desc": "Mid range lightweight protection-go!",
            "homepage": "https://energized.pro/",
            "license": ["MIT", "https://raw.githubusercontent.com/EnergizedProtection/block/master/LICENSE"],
            "syntax": "hosts",
            "source": "https://block.energized.pro/bluGo/formats/hosts.txt",
            "mirrors": [
                ["https://codeberg.org/tblock/mirror/media/branch/2.0.0/lists/energized-blugo.xz", "xz"],
                ["https://framagit.org/twann/mirror/-/raw/2.0.0/lists/energized-blugo.xz", "xz"]
            ],
            "tags": ["ads", "tracking"],
            "warning": "1"
        },
        "energized-porn": {
            "title": "Energized Porn",
            "desc": "Pornware blocking.",
            "homepage": "https://energized.pro/",
            "license": ["MIT", "https://raw.githubusercontent.com/EnergizedProtection/block/master/LICENSE"],
            "syntax": "hosts",
            "source": "https://block.energized.pro/porn/formats/hosts.txt",
            "mirrors": [
                ["https://codeberg.org/tblock/mirror/media/branch/2.0.0/lists/energized-porn.xz", "xz"],
                ["https://framagit.org/twann/mirror/-/raw/2.0.0/lists/energized-porn.xz", "xz"]
            ],
            "tags": ["ads", "porn", "tracking"],
            "warning": "3"
        },
        "energized-spark": {
            "title": "Energized Spark",
            "desc": "True lightweight protection.",
            "homepage": "https://energized.pro/",
            "license": ["MIT", "https://raw.githubusercontent.com/EnergizedProtection/block/master/LICENSE"],
            "syntax": "hosts",
            "source": "https://block.energized.pro/spark/formats/hosts.txt",
            "mirrors": [
                ["https://codeberg.org/tblock/mirror/media/branch/2.0.0/lists/energized-spark.xz", "xz"],
                ["https://framagit.org/twann/mirror/-/raw/2.0.0/lists/energized-spark.xz", "xz"]
            ],
            "tags": ["ads", "tracking"],
            "warning": "0"
        },
        "energized-ultimate": {
            "title": "Energized Ultimate",
            "desc": "Flagship protection.",
            "homepage": "https://energized.pro/",
            "license": ["MIT", "https://raw.githubusercontent.com/EnergizedProtection/block/master/LICENSE"],
            "syntax": "hosts",
            "source": "https://block.energized.pro/ultimate/formats/hosts.txt",
            "mirrors": [
                ["https://codeberg.org/tblock/mirror/media/branch/2.0.0/lists/energized-ultimate.xz", "xz"],
                ["https://framagit.org/twann/mirror/-/raw/2.0.0/lists/energized-ultimate.xz", "xz"]
            ],
            "tags": ["ads", "tracking"],
            "warning": "3"
        },
        "energized-unified": {
            "title": "Energized Unified",
            "desc": "Flagship protection with pornware blocking.",
            "homepage": "https://energized.pro/",
            "license": ["MIT", "https://raw.githubusercontent.com/EnergizedProtection/block/master/LICENSE"],
            "syntax": "hosts",
            "source": "https://block.energized.pro/unified/formats/hosts.txt",
            "mirrors": [
                ["https://codeberg.org/tblock/mirror/media/branch/2.0.0/lists/energized-unified.xz", "xz"],
                ["https://framagit.org/twann/mirror/-/raw/2.0.0/lists/energized-unified.xz", "xz"]
            ],
            "tags": ["ads", "porn", "tracking"],
            "warning": "3"
        },
        "exodus-privacy": {
            "title": "Exodus Privacy Standard",
            "desc": "This host file is based on Exodus Privacy database",
            "homepage": "https://go.blokada.org/exodusprivacy",
            "license": ["AGPL-3.0", "https://raw.githubusercontent.com/Exodus-Privacy/exodus/v1/LICENSE"],
            "syntax": "list",
            "source": "https://blokada.org/blocklists/exodusprivacy/standard/hosts.txt",
            "mirrors": [
                ["https://codeberg.org/tblock/mirror/media/branch/2.0.0/lists/exodus-privacy.xz", "xz"],
                ["https://framagit.org/twann/mirror/-/raw/2.0.0/lists/exodus-privacy.xz", "xz"]
            ],
            "tags": ["tracking"],
            "warning": "0"
        },
        "fanboy-annoyance": {
            "title": "Fanboy's Annoyance List",
            "desc": "In page Pop-Ups and other annoyances; thereby substantially decreasing web page loading times and uncluttering them",
            "homepage": "https://fanboy.co.nz",
            "license": ["CC-BY-3.0", "https://creativecommons.org/licenses/by/3.0/legalcode.txt"],
            "syntax": "adblockplus",
            "source": "https://secure.fanboy.co.nz/fanboy-annoyance.txt",
            "mirrors": [
                ["https://codeberg.org/tblock/mirror/media/branch/2.0.0/lists/fanboy-annoyance.xz", "xz"],
                ["https://framagit.org/twann/mirror/-/raw/2.0.0/lists/fanboy-annoyance.xz", "xz"]
            ],
            "tags": ["annoyances"],
            "warning": "0"
        },
        "gameindustry-android-full": {
            "title": "GameIndustry Android Full",
            "desc": "Unique host templates to enhance own privacy in games, websites and regulary software",
            "homepage": "https://www.gameindustry.eu/",
            "license": ["CC-BY-NC-SA-4.0", "https://creativecommons.org/licenses/by-nc-sa/4.0/legalcode.txt"],
            "syntax": "hosts",
            "source": "https://codeberg.org/Pengin/GameIndustry-hosts-Template/raw/branch/master/Android-Full-Template/hosts",
            "mirrors": [
                ["https://github.com/KodoPengin/GameIndustry-hosts-Template/raw/master/Android-Full-Template/hosts", null],
                ["https://codeberg.org/tblock/mirror/media/branch/2.0.0/lists/gameindustry-android-full.xz", "xz"],
                ["https://framagit.org/twann/mirror/-/raw/2.0.0/lists/gameindustry-android-full.xz", "xz"]
            ],
            "tags": ["tracking"],
            "warning": "0"
        },
        "gameindustry-android-mini": {
            "title": "GameIndustry Android Mini",
            "desc": "Unique host templates to enhance own privacy in games, websites and regulary software",
            "homepage": "https://www.gameindustry.eu/",
            "license": ["CC-BY-NC-SA-4.0", "https://creativecommons.org/licenses/by-nc-sa/4.0/legalcode.txt"],
            "syntax": "hosts",
            "source": "https://codeberg.org/Pengin/GameIndustry-hosts-Template/raw/branch/master/Android-Mini-Template/hosts",
            "mirrors": [
                ["https://github.com/KodoPengin/GameIndustry-hosts-Template/raw/master/Android-Mini-Template/hosts", null],
                ["https://codeberg.org/tblock/mirror/media/branch/2.0.0/lists/gameindustry-android-mini.xz", "xz"],
                ["https://framagit.org/twann/mirror/-/raw/2.0.0/lists/gameindustry-android-mini.xz", "xz"]
            ],
            "tags": ["tracking"],
            "warning": "0"
        },
        "gameindustry-gaming-full": {
            "title": "GameIndustry Gaming Full",
            "desc": "Unique host templates to enhance own privacy in games, websites and regulary software",
            "homepage": "https://www.gameindustry.eu/",
            "license": ["CC-BY-NC-SA-4.0", "https://creativecommons.org/licenses/by-nc-sa/4.0/legalcode.txt"],
            "syntax": "hosts",
            "source": "https://codeberg.org/Pengin/GameIndustry-hosts-Template/raw/branch/master/Gaming-Full-Template/hosts",
            "mirrors": [
                ["https://github.com/KodoPengin/GameIndustry-hosts-Template/raw/master/Gaming-Full-Template/hosts", null],
                ["https://codeberg.org/tblock/mirror/media/branch/2.0.0/lists/gameindustry-gaming-full.xz", "xz"],
                ["https://framagit.org/twann/mirror/-/raw/2.0.0/lists/gameindustry-gaming-full.xz", "xz"]
            ],
            "tags": ["tracking"],
            "warning": "0"
        },
        "gameindustry-gaming-mini": {
            "title": "GameIndustry Gaming Mini",
            "desc": "Unique host templates to enhance own privacy in games, websites and regulary software",
            "homepage": "https://www.gameindustry.eu/",
            "license": ["CC-BY-NC-SA-4.0", "https://creativecommons.org/licenses/by-nc-sa/4.0/legalcode.txt"],
            "syntax": "hosts",
            "source": "https://codeberg.org/Pengin/GameIndustry-hosts-Template/raw/branch/master/Gaming-Mini-Template/hosts",
            "mirrors": [
                ["https://github.com/KodoPengin/GameIndustry-hosts-Template/raw/master/Gaming-Mini-Template/hosts", null],
                ["https://codeberg.org/tblock/mirror/media/branch/2.0.0/lists/gameindustry-gaming-mini.xz", "xz"],
                ["https://framagit.org/twann/mirror/-/raw/2.0.0/lists/gameindustry-gaming-mini.xz", "xz"]
            ],
            "tags": ["tracking"],
            "warning": "0"
        },
        "goodbyeads": {
            "title": "GoodbyeAds",
            "desc": "Blocks Ads.Trackers.Analytics.Malware.",
            "homepage": "https://github.com/jerryn70/GoodbyeAds",
            "license": ["MIT", "https://raw.githubusercontent.com/jerryn70/GoodbyeAds/master/LICENSE"],
            "syntax": "hosts",
            "source": "https://raw.githubusercontent.com/jerryn70/GoodbyeAds/master/Hosts/GoodbyeAds.txt",
            "mirrors": [
                ["https://codeberg.org/tblock/mirror/media/branch/2.0.0/lists/goodbyeads.xz", "xz"],
                ["https://framagit.org/twann/mirror/-/raw/2.0.0/lists/goodbyeads.xz", "xz"]
            ],
            "tags": ["ads", "malware", "tracking"],
            "warning": "0"
        },
        "google-adservice-hosts": {
            "title": "Google AdService and ID.Google tracking hosts",
            "desc": "Google AdService and ID.Google tracking hosts",
            "homepage": "https://github.com/kowith337/PersonalFilterListCollection/tree/master/hosts",
            "license": ["CC-BY-NC-4.0", "https://raw.githubusercontent.com/kowith337/PersonalFilterListCollection/master/license.md"],
            "syntax": "hosts",
            "source": "https://raw.githubusercontent.com/kowith337/PersonalFilterListCollection/master/hosts/hosts_google_adservice_id.txt",
            "mirrors": [
                ["https://codeberg.org/tblock/mirror/media/branch/2.0.0/lists/google-adservice-hosts.xz", "xz"],
                ["https://framagit.org/twann/mirror/-/raw/2.0.0/lists/google-adservice-hosts.xz", "xz"]
            ],
            "tags": ["ads", "tracking"],
            "warning": "1"
        },
        "hblock": {
            "title": "hBlock hosts",
            "desc": "hBlock default blocklist",
            "homepage": "https://hblock.molinero.dev/",
            "license": ["MIT", "https://raw.githubusercontent.com/hectorm/hblock/master/LICENSE.md"],
            "syntax": "list",
            "source": "https://hblock.molinero.dev/hosts_domains.txt",
            "mirrors": [
                ["https://codeberg.org/tblock/mirror/media/branch/2.0.0/lists/hblock.xz", "xz"],
                ["https://framagit.org/twann/mirror/-/raw/2.0.0/lists/hblock.xz", "xz"]
            ],
            "tags": ["ads", "malware", "tracking"],
            "warning": "0"
        },
        "lightswitch05-ads-tracking": {
            "title": "Lightswitch05's ads-and-tracking-extended.txt",
            "desc": "A collection of hosts files for domain blocking",
            "homepage": "https://www.github.developerdan.com/hosts/",
            "license": ["MIT", "https://raw.githubusercontent.com/lightswitch05/hosts/master/LICENSE"],
            "syntax": "hosts",
            "source": "https://www.github.developerdan.com/hosts/lists/ads-and-tracking-extended.txt",
            "mirrors": [
                ["https://codeberg.org/tblock/mirror/media/branch/2.0.0/lists/lightswitch05-ads-tracking.xz", "xz"],
                ["https://framagit.org/twann/mirror/-/raw/2.0.0/lists/lightswitch05-ads-tracking.xz", "xz"]
            ],
            "tags": ["ads", "tracking"],
            "warning": "0"
        },
        "mpvs-hosts": {
            "title": "MVPS hosts file",
            "desc": "High quality custom hosts file",
            "homepage": "https://winhelp2002.mvps.org/",
            "license": ["CC-BY-NC-SA-4.0", "https://creativecommons.org/licenses/by-nc-sa/4.0/legalcode.txt"],
            "syntax": "hosts",
            "source": "https://winhelp2002.mvps.org/hosts.txt",
            "mirrors": [
                ["https://codeberg.org/tblock/mirror/media/branch/2.0.0/lists/mpvs-hosts.xz", "xz"],
                ["https://framagit.org/twann/mirror/-/raw/2.0.0/lists/mpvs-hosts.xz", "xz"]
            ],
            "tags": ["ads", "tracking"],
            "warning": "0"
        },
        "narsil-hosts-google": {
            "title": "Narsil/hosts Google",
            "desc": "Avoiding Google using Android",
            "homepage": "https://codeberg.org/Narsil/hosts/src/branch/master/Google",
            "license": ["GPL-3.0", "https://codeberg.org/Narsil/hosts/raw/branch/master/LICENSE"],
            "syntax": "hosts",
            "source": "https://codeberg.org/Narsil/hosts/raw/branch/master/Google/HostsGoogle",
            "mirrors": [
                ["https://codeberg.org/tblock/mirror/media/branch/2.0.0/lists/narsil-hosts-google.xz", "xz"],
                ["https://framagit.org/twann/mirror/-/raw/2.0.0/lists/narsil-hosts-google.xz", "xz"]
            ],
            "tags": ["services", "tracking"],
            "warning": "2"
        },
        "narsil-hosts-mozilla": {
            "title": "Narsil/hosts Mozilla",
            "desc": "Blocking automatic connections using Firefox for Android, Fennec F-Droid, Mull and Iceraven (addons will not update).",
            "homepage": "https://codeberg.org/Narsil/hosts/src/branch/master/Mozilla",
            "license": ["GPL-3.0", "https://codeberg.org/Narsil/hosts/raw/branch/master/LICENSE"],
            "syntax": "hosts",
            "source": "https://codeberg.org/Narsil/hosts/raw/branch/master/Mozilla/Mozilla",
            "mirrors": [
                ["https://codeberg.org/tblock/mirror/media/branch/2.0.0/lists/narsil-hosts-mozilla.xz", "xz"],
                ["https://framagit.org/twann/mirror/-/raw/2.0.0/lists/narsil-hosts-mozilla.xz", "xz"]
            ],
            "tags": ["services", "tracking"],
            "warning": "2"
        },
        "narsil-hosts-microsoft": {
            "title": "Narsil/hosts Microsoft",
            "desc": "Zero-automatic connections using Windows",
            "homepage": "https://codeberg.org/Narsil/hosts/src/branch/master/Microsoft",
            "license": ["GPL-3.0", "https://codeberg.org/Narsil/hosts/raw/branch/master/LICENSE"],
            "syntax": "hosts",
            "source": "https://codeberg.org/Narsil/hosts/raw/branch/master/Microsoft/Microsoft",
            "mirrors": [
                ["https://codeberg.org/tblock/mirror/media/branch/2.0.0/lists/narsil-hosts-microsoft.xz", "xz"],
                ["https://framagit.org/twann/mirror/-/raw/2.0.0/lists/narsil-hosts-microsoft.xz", "xz"]
            ],
            "tags": ["services", "tracking"],
            "warning": "2"
        },
        "narsil-hosts-spymicrosoft": {
            "title": "Narsil/hosts SpyMicrosoft",
            "desc": "Microsoft spy hosts list",
            "homepage": "https://codeberg.org/Narsil/hosts/src/branch/master/Microsoft",
            "license": ["GPL-3.0", "https://codeberg.org/Narsil/hosts/raw/branch/master/LICENSE"],
            "syntax": "hosts",
            "source": "https://codeberg.org/Narsil/hosts/raw/branch/master/Microsoft/SpyMicrosoft",
            "mirrors": [
                ["https://codeberg.org/tblock/mirror/media/branch/2.0.0/lists/narsil-hosts-spymicrosoft.xz", "xz"],
                ["https://framagit.org/twann/mirror/-/raw/2.0.0/lists/narsil-hosts-spymicrosoft.xz", "xz"]
            ],
            "tags": ["tracking"],
            "warning": "0"
        },
        "nocoin": {
            "title": "NoCoin Filter List",
            "desc": "This filter disables browser based miners such as coin-hive",
            "homepage": "https://github.com/hoshsadiq/adblock-nocoin-list/",
            "license": ["MIT", "https://raw.githubusercontent.com/hoshsadiq/adblock-nocoin-list/master/LICENSE"],
            "syntax": "hosts",
            "source": "https://raw.githubusercontent.com/hoshsadiq/adblock-nocoin-list/master/hosts.txt",
            "mirrors": [
                ["https://codeberg.org/tblock/mirror/media/branch/2.0.0/lists/nocoin.xz", "xz"],
                ["https://framagit.org/twann/mirror/-/raw/2.0.0/lists/nocoin.xz", "xz"]
            ],
            "tags": ["malware"],
            "warning": "0"
        },
        "notracking": {
            "title": "Notracking blocklist",
            "desc": "The NoTracking blocklist is a DNS based filter list for blocking ads, malware, phising and other online garbage.",
            "homepage": "https://github.com/notracking/hosts-blocklists",
            "license": ["CC-BY-NC-SA-4.0", "https://creativecommons.org/licenses/by-nc-sa/4.0/legalcode.txt"],
            "syntax": "adblockplus",
            "source": "https://raw.githubusercontent.com/notracking/hosts-blocklists/master/adblock/adblock.txt",
            "mirrors": [
                ["https://codeberg.org/tblock/mirror/media/branch/2.0.0/lists/notracking.xz", "xz"],
                ["https://framagit.org/twann/mirror/-/raw/2.0.0/lists/notracking.xz", "xz"]
            ],
            "tags": ["ads", "malware", "spam", "tracking"],
            "warning": "1"
        },
        "oisd-basic": {
            "title": "oisd basic",
            "desc": "This list is designed to work for everyone.",
            "homepage": "https://oisd.nl/",
            "license": ["proprietary", "https://oisd.nl/faq#opensource"],
            "syntax": "list",
            "source": "https://dbl.oisd.nl/basic/",
            "mirrors": [],
            "tags": ["ads", "malware", "spam", "tracking"],
            "warning": "0"
        },
        "oisd-extra": {
            "title": "oisd extra",
            "desc": "This list contains domains blocked by other well known blocklists that aren't in the main oisd list (because blocking them is known to break stuff)",
            "homepage": "https://oisd.nl/",
            "license": ["proprietary", "https://oisd.nl/faq#opensource"],
            "syntax": "list",
            "source": "https://dbl.oisd.nl/extra/",
            "mirrors": [],
            "tags": ["ads", "tracking"],
            "warning": "2"
        },
        "oisd-full": {
            "title": "oisd full",
            "desc": "This list prioritizes functionality over blocking.",
            "homepage": "https://oisd.nl/",
            "license": ["proprietary", "https://oisd.nl/faq#opensource"],
            "syntax": "list",
            "source": "https://dbl.oisd.nl/",
            "mirrors": [],
            "tags": ["ads", "malware", "spam", "tracking"],
            "warning": "3"
        },
        "oisd-nsfw": {
            "title": "oisd nsfw",
            "desc": "This list blocks NSFW content.",
            "homepage": "https://oisd.nl/",
            "license": ["proprietary", "https://oisd.nl/faq#opensource"],
            "syntax": "list",
            "source": "https://dbl.oisd.nl/nsfw/",
            "mirrors": [],
            "tags": ["porn"],
            "warning": "3"
        },
        "peter-lowe": {
            "title": "Peter Lowe's List",
            "desc": "Block advertisements.",
            "homepage": "https://pgl.yoyo.org/adservers/",
            "license": ["custom", "https://pgl.yoyo.org/license/"],
            "syntax": "list",
            "source": "https://pgl.yoyo.org/adservers/serverlist.php?hostformat=nohtml&amp;showintro=0&amp;mimetype=plaintext",
            "mirrors": [
                ["https://codeberg.org/tblock/mirror/media/branch/2.0.0/lists/peter-lowe.xz", "xz"],
                ["https://framagit.org/twann/mirror/-/raw/2.0.0/lists/peter-lowe.xz", "xz"]
            ],
            "tags": ["ads"],
            "warning": "0"
        },
        "pornhosts": {
            "title": "pornhosts",
            "desc": "A single hosts to allow for easy blocking of porn on your local machine or on a network.",
            "homepage": "https://mypdns.org/clefspeare13/pornhosts",
            "license": ["CC-BY-SA-4.0", "https://mypdns.org/clefspeare13/pornhosts/-/raw/master/LICENSE"],
            "syntax": "hosts",
            "source": "https://mypdns.org/clefspeare13/pornhosts/-/raw/master/download_here/127.0.0.1/hosts",
            "mirrors": [
                ["https://raw.githubusercontent.com/Import-External-Sources/pornhosts/master/download_here/127.0.0.1/hosts", null],
                ["https://codeberg.org/tblock/mirror/media/branch/2.0.0/lists/peter-lowe.xz", "xz"],
                ["https://framagit.org/twann/mirror/-/raw/2.0.0/lists/peter-lowe.xz", "xz"]
            ],
            "tags": ["porn"],
            "warning": "0"
        },
        "shady-hosts": {
            "title": "shady-hosts",
            "desc": "List of ad/tracking servers",
            "homepage": "https://github.com/shreyasminocha/shady-hosts",
            "license": ["CC0-1.0", "https://raw.githubusercontent.com/shreyasminocha/shady-hosts/main/LICENSE"],
            "syntax": "hosts",
            "source": "https://raw.githubusercontent.com/shreyasminocha/shady-hosts/main/hosts",
            "mirrors": [
                ["https://codeberg.org/tblock/mirror/media/branch/2.0.0/lists/shady-hosts.xz", "xz"],
                ["https://framagit.org/twann/mirror/-/raw/2.0.0/lists/shady-hosts.xz", "xz"]
            ],
            "tags": ["ads", "tracking"],
            "warning": "0"
        },
        "spam404": {
            "title": "Spam404",
            "desc": "This filter protects you from online scams. This filter is regularly updated with data collected by Spam404.com.",
            "homepage": "https://www.spam404.com/",
            "license": ["CC-BY-SA", "https://raw.githubusercontent.com/Spam404/lists/master/LICENSE.md/LICENSE.md"],
            "syntax": "list",
            "source": "https://github.com/Spam404/lists/raw/master/main-blacklist.txt",
            "mirrors": [
                ["https://codeberg.org/tblock/mirror/media/branch/2.0.0/lists/spam404.xz", "xz"],
                ["https://framagit.org/twann/mirror/-/raw/2.0.0/lists/spam404.xz", "xz"]
            ],
            "tags": ["spam"],
            "warning": "0"
        },
        "stevenblack-hosts": {
            "title": "StevenBlack/hosts",
            "desc": "This hosts file is a merged collection of hosts from reputable sources, with a dash of crowd sourcing via GitHub",
            "homepage": "https://github.com/StevenBlack/hosts",
            "license": ["MIT", "https://raw.githubusercontent.com/StevenBlack/hosts/master/license.txt"],
            "syntax": "hosts",
            "source": "https://raw.githubusercontent.com/StevenBlack/hosts/master/hosts",
            "mirrors": [
                ["http://sbc.io/hosts/hosts", null],
                ["https://codeberg.org/tblock/mirror/media/branch/2.0.0/lists/stevenblack-hosts.xz", "xz"],
                ["https://framagit.org/twann/mirror/-/raw/2.0.0/lists/stevenblack-hosts.xz", "xz"]
            ],
            "tags": ["malware", "tracking"],
            "warning": "0"
        },
        "stevenblack-hosts-fakenews": {
            "title": "StevenBlack/hosts with the fakenews extension",
            "desc": "This hosts file is a merged collection of hosts from reputable sources, with a dash of crowd sourcing via GitHub",
            "homepage": "https://github.com/StevenBlack/hosts",
            "license": ["MIT", "https://raw.githubusercontent.com/StevenBlack/hosts/master/license.txt"],
            "syntax": "hosts",
            "source": "https://raw.githubusercontent.com/StevenBlack/hosts/master/alternates/fakenews/hosts",
            "mirrors": [
                ["http://sbc.io/hosts/alternates/fakenews/hosts", null],
                ["https://codeberg.org/tblock/mirror/media/branch/2.0.0/lists/stevenblack-hosts-fakenews.xz", "xz"],
                ["https://framagit.org/twann/mirror/-/raw/2.0.0/lists/stevenblack-hosts-fakenews.xz", "xz"]
            ],
            "tags": ["fakenews", "malware", "tracking"],
            "warning": "0"
        },
        "stevenblack-hosts-gambling": {
            "title": "StevenBlack/hosts with the gambling extension",
            "desc": "This hosts file is a merged collection of hosts from reputable sources, with a dash of crowd sourcing via GitHub",
            "homepage": "https://github.com/StevenBlack/hosts",
            "license": ["MIT", "https://raw.githubusercontent.com/StevenBlack/hosts/master/license.txt"],
            "syntax": "hosts",
            "source": "https://raw.githubusercontent.com/StevenBlack/hosts/master/alternates/gambling/hosts",
            "mirrors": [
                ["http://sbc.io/hosts/alternates/gambling/hosts", null],
                ["https://codeberg.org/tblock/mirror/media/branch/2.0.0/lists/stevenblack-hosts-gambling.xz", "xz"],
                ["https://framagit.org/twann/mirror/-/raw/2.0.0/lists/stevenblack-hosts-gambling.xz", "xz"]
            ],
            "tags": ["gambling", "malware", "tracking"],
            "warning": "0"
        },
        "stevenblack-hosts-porn": {
            "title": "StevenBlack/hosts with the porn extension",
            "desc": "This hosts file is a merged collection of hosts from reputable sources, with a dash of crowd sourcing via GitHub",
            "homepage": "https://github.com/StevenBlack/hosts",
            "license": ["MIT", "https://raw.githubusercontent.com/StevenBlack/hosts/master/license.txt"],
            "syntax": "hosts",
            "source": "https://raw.githubusercontent.com/StevenBlack/hosts/master/alternates/porn/hosts",
            "mirrors": [
                ["http://sbc.io/hosts/alternates/porn/hosts", null],
                ["https://codeberg.org/tblock/mirror/media/branch/2.0.0/lists/stevenblack-hosts-porn.xz", "xz"],
                ["https://framagit.org/twann/mirror/-/raw/2.0.0/lists/stevenblack-hosts-porn.xz", "xz"]
            ],
            "tags": ["malware", "porn", "tracking"],
            "warning": "0"
        },
        "stevenblack-hosts-social": {
            "title": "StevenBlack/hosts with the social extension",
            "desc": "This hosts file is a merged collection of hosts from reputable sources, with a dash of crowd sourcing via GitHub",
            "homepage": "https://github.com/StevenBlack/hosts",
            "license": ["MIT", "https://raw.githubusercontent.com/StevenBlack/hosts/master/license.txt"],
            "syntax": "hosts",
            "source": "https://raw.githubusercontent.com/StevenBlack/hosts/master/alternates/social/hosts",
            "mirrors": [
                ["http://sbc.io/hosts/alternates/porn/hosts", null],
                ["https://codeberg.org/tblock/mirror/media/branch/2.0.0/lists/stevenblack-hosts-social.xz", "xz"],
                ["https://framagit.org/twann/mirror/-/raw/2.0.0/lists/stevenblack-hosts-social.xz", "xz"]
            ],
            "tags": ["malware", "social", "tracking"],
            "warning": "2"
        },
        "stevenblack-hosts-full": {
            "title": "StevenBlack/hosts with the fakenews, gambling, porn and social extensions",
            "desc": "This hosts file is a merged collection of hosts from reputable sources, with a dash of crowd sourcing via GitHub",
            "homepage": "https://github.com/StevenBlack/hosts",
            "license": ["MIT", "https://raw.githubusercontent.com/StevenBlack/hosts/master/license.txt"],
            "syntax": "hosts",
            "source": "https://raw.githubusercontent.com/StevenBlack/hosts/master/alternates/fakenews-gambling-porn-social/hosts",
            "mirrors": [
                ["http://sbc.io/hosts/alternates/fakenews-gambling-porn-social/hosts", null],
                ["https://codeberg.org/tblock/mirror/media/branch/2.0.0/lists/stevenblack-hosts-full.xz", "xz"],
                ["https://framagit.org/twann/mirror/-/raw/2.0.0/lists/stevenblack-hosts-full.xz", "xz"]
            ],
            "tags": ["fakenews", "gambling", "malware", "porn", "social", "tracking"],
            "warning": "2"
        },
        "tblock-allow": {
            "title": "TBlock Allowlist",
            "desc": "Unblock domains required for TBlock to work",
            "homepage": "https://tblock.codeberg.page/",
            "license": ["GPL-3.0", "https://codeberg.org/tblock/filters/raw/branch/main/LICENSE"],
            "syntax": "tblock",
            "source": "https://codeberg.org/tblock/filters/raw/branch/main/filters/allow/tblock.txt",
            "mirrors": [
                ["https://codeberg.org/tblock/mirror/media/branch/2.0.0/lists/tblock-allow.xz", "xz"],
                ["https://framagit.org/twann/mirror/-/raw/2.0.0/lists/tblock-allow.xz", "xz"]
            ],
            "tags": ["unblock"],
            "warning": "0"
        },
        "tblock-base": {
            "title": "TBlock Base filter",
            "desc": "Filter composed of EasyList, EasyPrivacy, Adaway & Twann's List",
            "homepage": "https://tblock.codeberg.page/",
            "license": ["GPL-3.0", "https://codeberg.org/tblock/filters/raw/branch/main/LICENSE"],
            "syntax": "tblock",
            "source": "https://codeberg.org/tblock/filters/raw/branch/main/filters/base/tblock.txt",
            "mirrors": [
                ["https://codeberg.org/tblock/mirror/media/branch/2.0.0/lists/tblock-base.xz", "xz"],
                ["https://framagit.org/twann/mirror/-/raw/2.0.0/lists/tblock-base.xz", "xz"]
            ],
            "tags": ["ads", "tracking"],
            "warning": "0"
        },
        "tblock-experimental": {
            "title": "TBlock experimental blocklist",
            "desc": "TBlock blocklist used for testing and experimental purposes, which can possibly break some web pages",
            "homepage": "https://tblock.codeberg.page/",
            "license": ["GPL-3.0", "https://codeberg.org/tblock/filters/raw/branch/main/LICENSE"],
            "syntax": "tblock",
            "source": "https://codeberg.org/tblock/filters/raw/branch/main/filters/experimental/tblock.txt",
            "mirrors": [
                ["https://codeberg.org/tblock/mirror/media/branch/2.0.0/lists/tblock-experimental.xz", "xz"],
                ["https://framagit.org/twann/mirror/-/raw/2.0.0/lists/tblock-experimental.xz", "xz"]
            ],
            "tags": ["ads", "tracking"],
            "warning": "2"
        },
        "tblock-security": {
            "title": "TBlock Security filter",
            "desc": "Anti-spam and anti-malware filter list composed of add.Spam, add.Risk, Badd Boyz Hosts & blackbook",
            "homepage": "https://tblock.codeberg.page/",
            "license": ["GPL-3.0", "https://codeberg.org/tblock/filters/raw/branch/main/LICENSE"],
            "syntax": "tblock",
            "source": "https://codeberg.org/tblock/filters/raw/branch/main/filters/security/tblock.txt",
            "mirrors": [
                ["https://codeberg.org/tblock/mirror/media/branch/2.0.0/lists/tblock-security.xz", "xz"],
                ["https://framagit.org/twann/mirror/-/raw/2.0.0/lists/tblock-security.xz", "xz"]
            ],
            "tags": ["malware", "spam"],
            "warning": "0"
        },
        "twann-anti-conspiracist": {
            "title": "Twann's Anti-Conspiracist List",
            "desc": "A blocklist aiming to block websites that spread fake news, conspiracy theories and misinformation",
            "homepage": "https://codeberg.org/twann/filters",
            "license": ["CC0-1.0", "https://codeberg.org/twann/filters/raw/branch/master/LICENSE"],
            "syntax": "tblock",
            "source": "https://codeberg.org/twann/filters/raw/branch/master/anti-conspiracist/tblock.tbf",
            "mirrors": [
                ["https://codeberg.org/tblock/mirror/media/branch/2.0.0/lists/twann-anti-conspiracist.xz", "xz"],
                ["https://framagit.org/twann/mirror/-/raw/2.0.0/lists/twann-anti-conspiracist.xz", "xz"]
            ],
            "tags": ["fakenews"],
            "warning": "0"
        },
        "twann-anti-ip-loggers": {
            "title": "Twann's Anti IP-Loggers Blocklist",
            "desc": "A filter optimised for blocking IP Loggers and protect your privacy.",
            "homepage": "https://codeberg.org/twann/filters",
            "license": ["CC0-1.0", "https://codeberg.org/twann/filters/raw/branch/master/LICENSE"],
            "syntax": "tblock",
            "source": "https://codeberg.org/twann/filters/raw/branch/master/anti-ip-loggers/tblock.tbf",
            "mirrors": [
                ["https://codeberg.org/tblock/mirror/media/branch/2.0.0/lists/twann-anti-ip-loggers.xz", "xz"],
                ["https://framagit.org/twann/mirror/-/raw/2.0.0/lists/twann-anti-ip-loggers.xz", "xz"]
            ],
            "tags": ["services", "tracking"],
            "warning": "0"
        },
        "twann-list": {
            "title": "Twann's List",
            "desc": "A powerful filter, combining security, privacy protection, ad blocking, and social icons and annoyances blocking.",
            "homepage": "https://codeberg.org/twann/filters",
            "license": ["CC0-1.0", "https://codeberg.org/twann/filters/raw/branch/master/LICENSE"],
            "syntax": "tblock",
            "source": "https://codeberg.org/twann/filters/raw/branch/master/twann-list/tblock.tbf",
            "mirrors": [
                ["https://codeberg.org/tblock/mirror/media/branch/2.0.0/lists/twann-list.xz", "xz"],
                ["https://framagit.org/twann/mirror/-/raw/2.0.0/lists/twann-list.xz", "xz"]
            ],
            "tags": ["ads", "annoyances", "malware"],
            "warning": "0"
        },
        "youtube-ad-blocklist": {
            "title": "YouTube Ad Blocklist",
            "desc": "An open project to maintain a list of domain names that serve YouTube ads.",
            "homepage": "https://github.com/Ewpratten/youtube_ad_blocklist",
            "license": ["GPL-3.0", "https://raw.githubusercontent.com/Ewpratten/youtube_ad_blocklist/master/LICENSE"],
            "syntax": "list",
            "source": "https://ewpratten.github.io/youtube_ad_blocklist/domains.txt",
            "mirrors": [
                ["https://github.com/Ewpratten/youtube_ad_blocklist/raw/master/blocklist.txt", null],
                ["https://codeberg.org/tblock/mirror/media/branch/2.0.0/lists/youtube-ad-blocklist.xz", "xz"],
                ["https://framagit.org/twann/mirror/-/raw/2.0.0/lists/youtube-ad-blocklist.xz", "xz"]
            ],
            "tags": ["ads", "service"],
            "warning": "2"
        }
    }
}
